%YAML 1.1
%TAG !u! tag:unity3d.com,2011:
--- !u!1045 &1
EditorBuildSettings:
  m_ObjectHideFlags: 0
  serializedVersion: 2
  m_Scenes:
  - enabled: 0
    path: 
    guid: 00000000000000000000000000000000
  - enabled: 1
    path: Assets/Assets/Scenes/Menu.unity
    guid: 4a8df13c473864e4ea857b81d661f9cc
  - enabled: 1
    path: Assets/Assets/Scenes/LVL1.unity
    guid: ab57a9b10487b0f47a536a76a2011a82
  - enabled: 0
    path: 
    guid: 00000000000000000000000000000000
  - enabled: 1
    path: Assets/Assets/Scenes/LVL2.unity
    guid: aff7e564dfa631340b0142b16f88c64a
  - enabled: 1
    path: Assets/Assets/Scenes/LVL3.unity
    guid: 8b44eb7a4c0033646abc26c6d34b7e6b
  - enabled: 1
    path: Assets/Assets/Scenes/EndMenu.unity
    guid: a4a7a52bf325b314ab83cad3ef36e1ba
  m_configObjects: {}
